İstatistiksel Analiz Uygulamaları Ara Sınav Ödevi
…
##       0%      25%      50%      75%     100% 
##  1730.00 37237.25 55478.00 70897.00 96547.00

9.9 Ortalama için Güven Aralığı Hesaplama:

n<30 olabilmesi için 30 örneklem çekip ortalamaya göre güven aralığı bulduk ki t testini uygulayabilelim.

Bir diğer etmen olarak ise “numeric” olmayan verileri çıkardık ki hesaplama süresince bize sıkıntı çıkarmasın.

set.seed(30)
data_sample_30 <- data_sample[sample(nrow(data_sample),30),]
data_sample_30_dbl <- select(data_sample_30, -c(Education, Marital_Status, Dt_Customer))
data_sample_30_dbl

## # A tibble: 30 x 27
##       ID Year_Birth Income Kidhome Teenhome Recency MntWines MntFruits
##    <dbl>      <dbl>  <dbl>   <dbl>    <dbl>   <dbl>    <dbl>     <dbl>
##  1  1212       1973  52845       1        0       7      384        25
##  2  6182       1984  26646       1        0      26       11         4
##  3  5585       1972  21359       1        0       1       12         2
##  4  7698       1976  51650       0        1      81      152         3
##  5  8629       1956  46984       1        1      71       19         1
##  6  1945       1962  71434       0        1       4      711        36
##  7  1772       1975  79174       0        0       2     1074        37
##  8  7244       1951     NA       2        1      96       48         5
##  9  1991       1967  44931       0        1       0       78         0
## 10  1506       1975  42160       1        1      26       48         9
## # ... with 20 more rows, and 19 more variables: MntMeatProducts <dbl>,
## #   MntFishProducts <dbl>, MntSweetProducts <dbl>, MntGoldProds <dbl>,
## #   NumDealsPurchases <dbl>, NumWebPurchases <dbl>, NumCatalogPurchases <dbl>,
## #   NumStorePurchases <dbl>, NumWebVisitsMonth <dbl>, AcceptedCmp3 <dbl>,
## #   AcceptedCmp4 <dbl>, AcceptedCmp5 <dbl>, AcceptedCmp1 <dbl>,
## #   AcceptedCmp2 <dbl>, Complain <dbl>, Z_CostContact <dbl>, Z_Revenue <dbl>,
## #   Response <dbl>, Kid_Status <dbl>
…
